TSAR Project Assignment Part 3 - Group 3
…
Step 2: Train 1st Benchmark Model

# Mean method used
mean_employment_fit <- train %>%
  model(
  Mean = MEAN(Employed)
)

# View first impression of the fitted values
augment(mean_employment_fit)

# A tsibble: 775 x 7 [1M]
# Key:       Series_ID, .model [1]
   Series_ID     .model    Month Employed .fitted .resid .innov
   <chr>         <chr>     <mth>    <dbl>   <dbl>  <dbl>  <dbl>
 1 CEU1000000001 Mean   1939 Jan      885    809.   76.4   76.4
 2 CEU1000000001 Mean   1939 Feb      882    809.   73.4   73.4
 3 CEU1000000001 Mean   1939 Mär      883    809.   74.4   74.4
 4 CEU1000000001 Mean   1939 Apr      614    809. -195.  -195. 
 5 CEU1000000001 Mean   1939 Mai      719    809.  -89.6  -89.6
 6 CEU1000000001 Mean   1939 Jun      852    809.   43.4   43.4
 7 CEU1000000001 Mean   1939 Jul      847    809.   38.4   38.4
 8 CEU1000000001 Mean   1939 Aug      864    809.   55.4   55.4
 9 CEU1000000001 Mean   1939 Sep      894    809.   85.4   85.4
10 CEU1000000001 Mean   1939 Okt      941    809.  132.   132. 
# ℹ 765 more rows
…
# Display prediction interval boundaries
fc_mean %>% 
  hilo()

# A tsibble: 194 x 7 [1M]
# Key:       Series_ID, .model [1]
   Series_ID     .model    Month
   <chr>         <chr>     <mth>
 1 CEU1000000001 Mean   2003 Aug
 2 CEU1000000001 Mean   2003 Sep
 3 CEU1000000001 Mean   2003 Okt
 4 CEU1000000001 Mean   2003 Nov
 5 CEU1000000001 Mean   2003 Dez
 6 CEU1000000001 Mean   2004 Jan
 7 CEU1000000001 Mean   2004 Feb
 8 CEU1000000001 Mean   2004 Mär
 9 CEU1000000001 Mean   2004 Apr
10 CEU1000000001 Mean   2004 Mai
# ℹ 184 more rows
# ℹ 4 more variables: Employed <dist>, .mean <dbl>, `80%` <hilo>, `95%` <hilo>
…
